> Task :setiOSFlag
> Task :updateSubmodules
> Task :generateBundleResources

> Task :generateWWW
Version 2.6.2
/Users/georgeshields/pasco-software/SPARKvue/node_modules/typescript/lib/lib.d.ts
/Users/georgeshields/pasco-software/SPARKvue/Common/SparkvueUI/workspace/SPARKvueUI/public/javascripts/native-bridge.d.ts
/Users/georgeshields/pasco-software/SPARKvue/Common/SparkvueUI/workspace/SPARKvueUI/public/javascripts/controls/AlertDialog.d.ts
/Users/georgeshields/pasco-software/SPARKvue/Common/SparkvueUI/workspace/SPARKvueUI/public/javascripts/controls/DropdownList.d.ts
/Users/georgeshields/pasco-software/SPARKvue/Common/SparkvueUI/workspace/SPARKvueUI/public/javascripts/controls/LegendView.d.ts
/Users/georgeshields/pasco-software/SPARKvue/Common/SparkvueUI/workspace/SPARKvueUI/public/javascripts/controls/PopupBarGraphEdit.d.ts
/Users/georgeshields/pasco-software/SPARKvue/Common/SparkvueUI/workspace/SPARKvueUI/public/javascripts/controls/PopupCalculatedData.d.ts
/Users/georgeshields/pasco-software/SPARKvue/Common/SparkvueUI/workspace/SPARKvueUI/public/javascripts/controls/PopupCreateCustomMeasurement.d.ts
/Users/georgeshields/pasco-software/SPARKvue/Common/SparkvueUI/workspace/SPARKvueUI/public/javascripts/controls/PopupDialog.d.ts
/Users/georgeshields/pasco-software/SPARKvue/Common/SparkvueUI/workspace/SPARKvueUI/public/javascripts/controls/PopupDigitsProperties.d.ts
/Users/georgeshields/pasco-software/SPARKvue/Common/SparkvueUI/workspace/SPARKvueUI/public/javascripts/JSCommonLib/Common.ts
/Users/georgeshields/pasco-software/SPARKvue/Common/SparkvueUI/workspace/SPARKvueUI/public/javascripts/JSCommonLib/IDataEngineServices.ts
/Users/georgeshields/pasco-software/SPARKvue/Common/SparkvueUI/workspace/SPARKvueUI/public/javascripts/JSCommonLib/IMeasurementServices.ts
/Users/georgeshields/pasco-software/SPARKvue/Common/SparkvueUI/workspace/SPARKvueUI/public/javascripts/JSCommonLib/IMeasurementPicker.ts
/Users/georgeshields/pasco-software/SPARKvue/Common/SparkvueUI/workspace/SPARKvueUI/public/javascripts/JSCommonLib/IEnvironmentServices.ts
/Users/georgeshields/pasco-software/SPARKvue/Common/SparkvueUI/workspace/SPARKvueUI/public/javascripts/JSCommonLib/Utility.ts
/Users/georgeshields/pasco-software/SPARKvue/Common/SparkvueUI/workspace/SPARKvueUI/public/javascripts/JSCommonLib/MeasurementPicker.ts
/Users/georgeshields/pasco-software/SPARKvue/Common/SparkvueUI/workspace/SPARKvueUI/public/javascripts/JSCommonLib/IRunPicker.ts
/Users/georgeshields/pasco-software/SPARKvue/Common/SparkvueUI/workspace/SPARKvueUI/public/javascripts/JSCommonLib/RunPicker.ts
/Users/georgeshields/pasco-software/SPARKvue/Common/SparkvueUI/workspace/SPARKvueUI/public/javascripts/JSCommonLib/IViewModelServices.ts
/Users/georgeshields/pasco-software/SPARKvue/Common/SparkvueUI/workspace/SPARKvueUI/public/javascripts/JSCommonLib/ITools.ts
/Users/georgeshields/pasco-software/SPARKvue/Common/SparkvueUI/workspace/SPARKvueUI/public/javascripts/JSCommonLib/IToolManagerOwner.ts
/Users/georgeshields/pasco-software/SPARKvue/Common/SparkvueUI/workspace/SPARKvueUI/public/javascripts/JSCommonLib/IToolbar.ts
/Users/georgeshields/pasco-software/SPARKvue/Common/SparkvueUI/workspace/SPARKvueUI/public/javascripts/JSCommonLib/IToolManagerServices.ts
/Users/georgeshields/pasco-software/SPARKvue/Common/SparkvueUI/workspace/SPARKvueUI/public/javascripts/JSCommonLib/EnvironmentLoader.ts
/Users/georgeshields/pasco-software/SPARKvue/Common/SparkvueUI/workspace/SPARKvueUI/public/javascripts/JSCommonLib/BaseDataViewServices.ts
/Users/georgeshields/pasco-software/SPARKvue/Common/SparkvueUI/workspace/SPARKvueUI/public/javascripts/workbook/GISMapView/GISMapDisplay.ts
/Users/georgeshields/pasco-software/SPARKvue/Common/SparkvueUI/workspace/SPARKvueUI/public/javascripts/controls/PopupGISMapProperties.ts
/Users/georgeshields/pasco-software/SPARKvue/Common/SparkvueUI/workspace/SPARKvueUI/public/javascripts/controls/PopupGraphCurveFitOptions_New.ts
/Users/georgeshields/pasco-software/SPARKvue/Common/SparkvueUI/workspace/SPARKvueUI/public/javascripts/controls/PopupGraphProperties.d.ts
/Users/georgeshields/pasco-software/SPARKvue/Common/SparkvueUI/workspace/SPARKvueUI/public/javascripts/controls/PopupHelp.d.ts
/Users/georgeshields/pasco-software/SPARKvue/Common/SparkvueUI/workspace/SPARKvueUI/public/javascripts/controls/PopupMeterProperties.d.ts
/Users/georgeshields/pasco-software/SPARKvue/Common/SparkvueUI/workspace/SPARKvueUI/public/javascripts/controls/PopupStatisticsOptions_New.ts
/Users/georgeshields/pasco-software/SPARKvue/Common/SparkvueUI/workspace/SPARKvueUI/public/javascripts/controls/PopupStatisticsOptions.d.ts
/Users/georgeshields/pasco-software/SPARKvue/Common/SparkvueUI/workspace/SPARKvueUI/public/javascripts/controls/PopupTextBox.d.ts
/Users/georgeshields/pasco-software/SPARKvue/Common/SparkvueUI/workspace/SPARKvueUI/public/javascripts/controls/Scrollbar.d.ts
/Users/georgeshields/pasco-software/SPARKvue/Common/SparkvueUI/workspace/SPARKvueUI/public/javascripts/controls/SensorList.d.ts
/Users/georgeshields/pasco-software/SPARKvue/Common/SparkvueUI/workspace/SPARKvueUI/public/javascripts/controls/TextInput.d.ts
/Users/georgeshields/pasco-software/SPARKvue/Common/SparkvueUI/workspace/SPARKvueUI/public/javascripts/controls/Toolbar.d.ts
/Users/georgeshields/pasco-software/SPARKvue/Common/SparkvueUI/workspace/SPARKvueUI/public/javascripts/handlers/DataEngineHandler.d.ts
/Users/georgeshields/pasco-software/SPARKvue/Common/SparkvueUI/workspace/SPARKvueUI/public/javascripts/handlers/SmartFanHandler.ts
/Users/georgeshields/pasco-software/SPARKvue/Common/SparkvueUI/workspace/SPARKvueUI/public/javascripts/handlers/ViewModelHandler.ts
/Users/georgeshields/pasco-software/SPARKvue/Common/SparkvueUI/workspace/SPARKvueUI/public/javascripts/handlers/WorkbookHandler.d.ts
/Users/georgeshields/pasco-software/SPARKvue/Common/SparkvueUI/workspace/SPARKvueUI/public/javascripts/jquery/jquery.textFit.d.ts
/Users/georgeshields/pasco-software/SPARKvue/Common/SparkvueUI/workspace/SPARKvueUI/public/javascripts/JSCommonLib/CommonJS.d.ts
/Users/georgeshields/pasco-software/SPARKvue/Common/SparkvueUI/workspace/SPARKvueUI/public/javascripts/JSCommonLib/DataColorMapper.ts
/Users/georgeshields/pasco-software/SPARKvue/Common/SparkvueUI/workspace/SPARKvueUI/public/javascripts/JSCommonLib/ZDateTime.ts
/Users/georgeshields/pasco-software/SPARKvue/Common/SparkvueUI/workspace/SPARKvueUI/public/javascripts/JSCommonLib/NumberFormatter_New.ts
/Users/georgeshields/pasco-software/SPARKvue/Common/SparkvueUI/workspace/SPARKvueUI/public/javascripts/JSCommonLib/StringResource.d.ts
/Users/georgeshields/pasco-software/SPARKvue/Common/SparkvueUI/workspace/SPARKvueUI/public/javascripts/JSCommonLib/Toolbar_New.ts
/Users/georgeshields/pasco-software/SPARKvue/Common/SparkvueUI/workspace/SPARKvueUI/public/javascripts/managers/ConnectManager.d.ts
/Users/georgeshields/pasco-software/SPARKvue/Common/SparkvueUI/workspace/SPARKvueUI/public/javascripts/managers/DataEngineManager.d.ts
/Users/georgeshields/pasco-software/SPARKvue/Common/SparkvueUI/workspace/SPARKvueUI/public/javascripts/managers/EventManager.d.ts
/Users/georgeshields/pasco-software/SPARKvue/Common/SparkvueUI/workspace/SPARKvueUI/public/javascripts/managers/ExperimentManager.d.ts
/Users/georgeshields/pasco-software/SPARKvue/Common/SparkvueUI/workspace/SPARKvueUI/public/javascripts/managers/LocaleManager.d.ts
/Users/georgeshields/pasco-software/SPARKvue/Common/SparkvueUI/workspace/SPARKvueUI/public/javascripts/managers/NumberFormatter.d.ts
/Users/georgeshields/pasco-software/SPARKvue/Common/SparkvueUI/workspace/SPARKvueUI/public/javascripts/managers/StatisticsManager.d.ts
/Users/georgeshields/pasco-software/SPARKvue/Common/SparkvueUI/workspace/SPARKvueUI/public/javascripts/managers/SymbolManager.d.ts
/Users/georgeshields/pasco-software/SPARKvue/Common/SparkvueUI/workspace/SPARKvueUI/public/javascripts/SpkEnvironmentServices/SpkDataEngineServices.ts
/Users/georgeshields/pasco-software/SPARKvue/Common/SparkvueUI/workspace/SPARKvueUI/public/javascripts/SpkEnvironmentServices/SpkEnvironmentServices.ts
/Users/georgeshields/pasco-software/SPARKvue/Common/SparkvueUI/workspace/SPARKvueUI/public/javascripts/SpkEnvironmentServices/SpkViewModelServices.ts
/Users/georgeshields/pasco-software/SPARKvue/Common/SparkvueUI/workspace/SPARKvueUI/public/javascripts/workbook/GraphView_new/IGraphLegend.ts
/Users/georgeshields/pasco-software/SPARKvue/Common/SparkvueUI/workspace/SPARKvueUI/public/javascripts/workbook/GraphView_new/Axis.ts
/Users/georgeshields/pasco-software/SPARKvue/Common/SparkvueUI/workspace/SPARKvueUI/public/javascripts/workbook/GraphView_new/GraphUtility.ts
/Users/georgeshields/pasco-software/SPARKvue/Common/SparkvueUI/workspace/SPARKvueUI/public/javascripts/workbook/ToolsLib/GraphToolManager.ts
/Users/georgeshields/pasco-software/SPARKvue/Common/SparkvueUI/workspace/SPARKvueUI/public/javascripts/workbook/GraphView_new/GraphLegend.ts
/Users/georgeshields/pasco-software/SPARKvue/Common/SparkvueUI/workspace/SPARKvueUI/public/javascripts/workbook/GraphView_new/GraphViewServices.ts
/Users/georgeshields/pasco-software/SPARKvue/Common/SparkvueUI/workspace/SPARKvueUI/public/javascripts/workbook/ToolsLib/SpkGraphToolBase.ts
/Users/georgeshields/pasco-software/SPARKvue/Common/SparkvueUI/workspace/SPARKvueUI/public/javascripts/workbook/ToolsLib/SpkAnnotationDataTool.ts
/Users/georgeshields/pasco-software/SPARKvue/Common/SparkvueUI/workspace/SPARKvueUI/public/javascripts/workbook/ToolsLib/SpkGraphCoordinatesTool.ts
/Users/georgeshields/pasco-software/SPARKvue/Common/SparkvueUI/workspace/SPARKvueUI/public/javascripts/workbook/ToolsLib/SpkGraphSelectionTool.ts
/Users/georgeshields/pasco-software/SPARKvue/Common/SparkvueUI/workspace/SPARKvueUI/public/javascripts/workbook/ToolsLib/SpkScopeSelectionTool.ts
/Users/georgeshields/pasco-software/SPARKvue/Common/SparkvueUI/workspace/SPARKvueUI/public/javascripts/workbook/ToolsLib/SpkGraphStatisticsTool.ts
/Users/georgeshields/pasco-software/SPARKvue/Common/SparkvueUI/workspace/SPARKvueUI/public/javascripts/workbook/ToolsLib/SpkGraphTextAnnotationTool.ts
/Users/georgeshields/pasco-software/SPARKvue/Common/SparkvueUI/workspace/SPARKvueUI/public/javascripts/workbook/ToolsLib/SpkMultiCoordinateTool.ts
/Users/georgeshields/pasco-software/SPARKvue/Common/SparkvueUI/workspace/SPARKvueUI/public/javascripts/workbook/ToolsLib/SpkGraphCurvefitTool.ts
/Users/georgeshields/pasco-software/SPARKvue/Common/SparkvueUI/workspace/SPARKvueUI/public/javascripts/workbook/ToolsLib/SpkGraphLinearCurvefitTool.ts
/Users/georgeshields/pasco-software/SPARKvue/Common/SparkvueUI/workspace/SPARKvueUI/public/javascripts/workbook/ToolsLib/SpkGraphSlopeTool.ts
/Users/georgeshields/pasco-software/SPARKvue/Common/SparkvueUI/workspace/SPARKvueUI/public/javascripts/workbook/ToolsLib/SpkGraphPredictionTool.ts
/Users/georgeshields/pasco-software/SPARKvue/Common/SparkvueUI/workspace/SPARKvueUI/public/javascripts/workbook/ToolsLib/SpkBarGraphStatisticsTool.ts
/Users/georgeshields/pasco-software/SPARKvue/Common/SparkvueUI/workspace/SPARKvueUI/public/javascripts/workbook/ToolsLib/BarGraphToolManager.ts
/Users/georgeshields/pasco-software/SPARKvue/Common/SparkvueUI/workspace/SPARKvueUI/public/javascripts/workbook/GraphView_new/BarGraphViewServices.ts
/Users/georgeshields/pasco-software/SPARKvue/Common/SparkvueUI/workspace/SPARKvueUI/public/javascripts/workbook/ToolsLib/SpkBarGraphTextAnnotation.ts
/Users/georgeshields/pasco-software/SPARKvue/Common/SparkvueUI/workspace/SPARKvueUI/public/javascripts/workbook/ToolsLib/SpkScopeTriggerTool.ts
/Users/georgeshields/pasco-software/SPARKvue/Common/SparkvueUI/workspace/SPARKvueUI/public/javascripts/SpkEnvironmentServices/SpkToolManagerServices.ts
/Users/georgeshields/pasco-software/SPARKvue/Common/SparkvueUI/workspace/SPARKvueUI/public/javascripts/SpkEnvironmentServices/SpkEnvironmentLoader.ts
/Users/georgeshields/pasco-software/SPARKvue/Common/SparkvueUI/workspace/SPARKvueUI/public/javascripts/ViewModels/ExperimentControlViewModel.d.ts
/Users/georgeshields/pasco-software/SPARKvue/Common/SparkvueUI/workspace/SPARKvueUI/public/javascripts/ViewModels/ViewModelBase.d.ts
/Users/georgeshields/pasco-software/SPARKvue/Common/SparkvueUI/workspace/SPARKvueUI/public/javascripts/ViewModels/ViewModelIDRegistry.ts
/Users/georgeshields/pasco-software/SPARKvue/Common/SparkvueUI/workspace/SPARKvueUI/public/javascripts/ViewModels/ViewModelIDRegistryJS.d.ts
/Users/georgeshields/pasco-software/SPARKvue/Common/SparkvueUI/workspace/SPARKvueUI/public/javascripts/workbook/HotSpotOverlay.ts
/Users/georgeshields/pasco-software/SPARKvue/Common/SparkvueUI/workspace/SPARKvueUI/public/javascripts/workbook/SmartFanView.ts
/Users/georgeshields/pasco-software/SPARKvue/Common/SparkvueUI/workspace/SPARKvueUI/public/javascripts/workbook/GraphView_new/IRendererOwner.ts
/Users/georgeshields/pasco-software/SPARKvue/Common/SparkvueUI/workspace/SPARKvueUI/public/javascripts/workbook/GraphView_new/Renderer.ts
/Users/georgeshields/pasco-software/SPARKvue/Common/SparkvueUI/workspace/SPARKvueUI/public/javascripts/workbook/BarMeterView/MultiMeterViewServices.ts
/Users/georgeshields/pasco-software/SPARKvue/Common/SparkvueUI/workspace/SPARKvueUI/public/javascripts/workbook/BarMeterView/BarMeterView.ts
/Users/georgeshields/pasco-software/SPARKvue/Common/SparkvueUI/workspace/SPARKvueUI/public/javascripts/workbook/BarMeterView/BarMeterRenderer.ts
/Users/georgeshields/pasco-software/SPARKvue/Common/SparkvueUI/workspace/SPARKvueUI/public/javascripts/workbook/GraphView_new/IAxisScaleValues.ts
/Users/georgeshields/pasco-software/SPARKvue/Common/SparkvueUI/workspace/SPARKvueUI/public/javascripts/workbook/GraphView_new/AxisScaleValues.ts
/Users/georgeshields/pasco-software/SPARKvue/Common/SparkvueUI/workspace/SPARKvueUI/public/javascripts/workbook/GraphView_new/AxisTimeScaleValues.ts
/Users/georgeshields/pasco-software/SPARKvue/Common/SparkvueUI/workspace/SPARKvueUI/public/javascripts/workbook/GraphView_new/LinearAxis.ts
/Users/georgeshields/pasco-software/SPARKvue/Common/SparkvueUI/workspace/SPARKvueUI/public/javascripts/workbook/BarMeterView/BarMeterRenderArea.ts
/Users/georgeshields/pasco-software/SPARKvue/Common/SparkvueUI/workspace/SPARKvueUI/public/javascripts/workbook/BarMeterView/MultiDigitsView.ts
/Users/georgeshields/pasco-software/SPARKvue/Common/SparkvueUI/workspace/SPARKvueUI/public/javascripts/workbook/DigitsView_NewLib/DigitsMeterViewServices.ts
/Users/georgeshields/pasco-software/SPARKvue/Common/SparkvueUI/workspace/SPARKvueUI/public/javascripts/workbook/DigitsView_NewLib/SingleValueDisplay.ts
/Users/georgeshields/pasco-software/SPARKvue/Common/SparkvueUI/workspace/SPARKvueUI/public/javascripts/workbook/DigitsView_NewLib/MeterView.ts
/Users/georgeshields/pasco-software/SPARKvue/Common/SparkvueUI/workspace/SPARKvueUI/public/javascripts/workbook/DigitsView_NewLib/CompassView.ts
/Users/georgeshields/pasco-software/SPARKvue/Common/SparkvueUI/workspace/SPARKvueUI/public/javascripts/workbook/DigitsView_NewLib/DigitsView.ts
/Users/georgeshields/pasco-software/SPARKvue/Common/SparkvueUI/workspace/SPARKvueUI/public/javascripts/workbook/DigitsView_NewLib/PageRunPickerView.ts
/Users/georgeshields/pasco-software/SPARKvue/Common/SparkvueUI/workspace/SPARKvueUI/public/javascripts/workbook/GISMapView/GISMapViewServices.ts
/Users/georgeshields/pasco-software/SPARKvue/Common/SparkvueUI/workspace/SPARKvueUI/public/javascripts/workbook/GISMapView/GISMapView.ts
/Users/georgeshields/pasco-software/SPARKvue/Common/SparkvueUI/workspace/SPARKvueUI/public/javascripts/workbook/GraphView_new/LinearRenderer.ts
/Users/georgeshields/pasco-software/SPARKvue/Common/SparkvueUI/workspace/SPARKvueUI/public/javascripts/workbook/GraphView_new/LineGraphPlotArea.ts
/Users/georgeshields/pasco-software/SPARKvue/Common/SparkvueUI/workspace/SPARKvueUI/public/javascripts/workbook/GraphView_new/GraphPlotArea.ts
/Users/georgeshields/pasco-software/SPARKvue/Common/SparkvueUI/workspace/SPARKvueUI/public/javascripts/workbook/GraphView_new/IndexedAxisScaleValues.ts
/Users/georgeshields/pasco-software/SPARKvue/Common/SparkvueUI/workspace/SPARKvueUI/public/javascripts/workbook/GraphView_new/IndexedAxis.ts
/Users/georgeshields/pasco-software/SPARKvue/Common/SparkvueUI/workspace/SPARKvueUI/public/javascripts/workbook/GraphView_new/BarRenderer.ts
/Users/georgeshields/pasco-software/SPARKvue/Common/SparkvueUI/workspace/SPARKvueUI/public/javascripts/workbook/GraphView_new/BarPlotArea.ts
/Users/georgeshields/pasco-software/SPARKvue/Common/SparkvueUI/workspace/SPARKvueUI/public/javascripts/workbook/GraphView_new/BarGraphPlotArea.ts
/Users/georgeshields/pasco-software/SPARKvue/Common/SparkvueUI/workspace/SPARKvueUI/public/javascripts/workbook/ToolsLib/GraphToolConverter.ts
/Users/georgeshields/pasco-software/SPARKvue/Common/SparkvueUI/workspace/SPARKvueUI/public/javascripts/workbook/GraphView_new/Graph.ts
/Users/georgeshields/pasco-software/SPARKvue/Common/SparkvueUI/workspace/SPARKvueUI/public/javascripts/workbook/GraphView_new/BarGraphView.ts
/Users/georgeshields/pasco-software/SPARKvue/Common/SparkvueUI/workspace/SPARKvueUI/public/javascripts/workbook/ToolsLib/ScopeToolManager.ts
/Users/georgeshields/pasco-software/SPARKvue/Common/SparkvueUI/workspace/SPARKvueUI/public/javascripts/workbook/GraphView_new/ScopeViewServices.ts
/Users/georgeshields/pasco-software/SPARKvue/Common/SparkvueUI/workspace/SPARKvueUI/public/javascripts/workbook/GraphView_new/ScopePlotArea.ts
/Users/georgeshields/pasco-software/SPARKvue/Common/SparkvueUI/workspace/SPARKvueUI/public/javascripts/workbook/GraphView_new/FFTPlotArea.ts
/Users/georgeshields/pasco-software/SPARKvue/Common/SparkvueUI/workspace/SPARKvueUI/public/javascripts/workbook/GraphView_new/LineGraphView.ts
/Users/georgeshields/pasco-software/SPARKvue/Common/SparkvueUI/workspace/SPARKvueUI/public/javascripts/workbook/GraphView_new/ScopeView.ts
/Users/georgeshields/pasco-software/SPARKvue/Common/SparkvueUI/workspace/SPARKvueUI/public/javascripts/workbook/GraphView_new/FFTViewServices.ts
/Users/georgeshields/pasco-software/SPARKvue/Common/SparkvueUI/workspace/SPARKvueUI/public/javascripts/workbook/GraphView_new/FFTView.ts
/Users/georgeshields/pasco-software/SPARKvue/node_modules/@types/arcgis-js-api/index.d.ts
/Users/georgeshields/pasco-software/SPARKvue/node_modules/@types/es6-promise/index.d.ts
/Users/georgeshields/pasco-software/SPARKvue/node_modules/@types/hammerjs/index.d.ts
/Users/georgeshields/pasco-software/SPARKvue/node_modules/@types/iscroll/index.d.ts
/Users/georgeshields/pasco-software/SPARKvue/node_modules/@types/jquery/index.d.ts
/Users/georgeshields/pasco-software/SPARKvue/node_modules/@types/jquery.transit/index.d.ts
/Users/georgeshields/pasco-software/SPARKvue/node_modules/@types/requirejs/index.d.ts
  [90mcompiled[0m Common/SPARKvueUI/workspace/SPARKvueUI/public/javascripts/workbook/DigitsView_NewLib/DigitsView.css
  [90mcompiled[0m Common/SPARKvueUI/workspace/SPARKvueUI/public/javascripts/workbook/DigitsView_NewLib/DigitsView_rtl.css
  [90mcompiled[0m Common/SPARKvueUI/workspace/SPARKvueUI/public/javascripts/workbook/DigitsView_NewLib/MeterView.css
  [90mcompiled[0m Common/SPARKvueUI/workspace/SPARKvueUI/public/javascripts/workbook/DigitsView_NewLib/MeterView_rtl.css
  [90mcompiled[0m Common/SPARKvueUI/workspace/SPARKvueUI/public/javascripts/JSCommonLib/MeasurementPicker.css
  [90mcompiled[0m Common/SPARKvueUI/workspace/SPARKvueUI/public/javascripts/JSCommonLib/MeasurementPicker_rtl.css
  [90mcompiled[0m Common/SPARKvueUI/workspace/SPARKvueUI/public/javascripts/workbook/GraphView_New/GraphView.css
  [90mcompiled[0m Common/SPARKvueUI/workspace/SPARKvueUI/public/javascripts/JSCommonLib/Toolbar_New.css
  [90mcompiled[0m Common/SPARKvueUI/workspace/SPARKvueUI/public/javascripts/JSCommonLib/Toolbar_New_rtl.css
  [90mcompiled[0m Common/SPARKvueUI/workspace/SPARKvueUI/public/javascripts/JSCommonLib/RunPicker.css
  [90mcompiled[0m Common/SPARKvueUI/workspace/SPARKvueUI/public/javascripts/JSCommonLib/RunPicker_rtl.css
  [90mcompiled[0m Common/SPARKvueUI/workspace/SPARKvueUI/public/javascripts/workbook/DigitsView_NewLib/PageRunPickerView.css
  [90mcompiled[0m Common/SPARKvueUI/workspace/SPARKvueUI/public/javascripts/workbook/DigitsView_NewLib/PageRunPickerView_rtl.css
  [90mcompiled[0m Common/SPARKvueUI/workspace/SPARKvueUI/public/javascripts/workbook/HotSpotOverlay.css
  [90mcompiled[0m Common/SPARKvueUI/workspace/SPARKvueUI/public/javascripts/workbook/ToolsLIb/ToolManager.css
  [90mcompiled[0m Common/SPARKvueUI/workspace/SPARKvueUI/public/javascripts/workbook/GraphView_New/GraphLegend.css
  [90mcompiled[0m Common/SPARKvueUI/workspace/SPARKvueUI/public/javascripts/workbook/GraphView_New/GraphLegend_rtl.css
  [90mcompiled[0m Common/SPARKvueUI/workspace/SPARKvueUI/public/javascripts/workbook/BarMeterView/BarMeterView.css
  [90mcompiled[0m Common/SPARKvueUI/workspace/SPARKvueUI/public/javascripts/workbook/GISMapView/GISMapDisplay.css
  [90mcompiled[0m Common/SPARKvueUI/workspace/SPARKvueUI/public/javascripts/workbook/BarMeterView/MultiDigitsView.css
  [90mcompiled[0m Common/SPARKvueUI/workspace/SPARKvueUI/public/javascripts/workbook/BarMeterView/MultiDigitsView_rtl.css

In Jade 2.0.0 --hierarchy will become the default.
  [90mrendered [36mCommon/SPARKvueUI/build/www/build.html[0m
  [90mrendered [36mCommon/SPARKvueUI/build/www/chrome.html[0m
  [90mrendered [36mCommon/SPARKvueUI/build/www/chrome_webview.html[0m
  [90mrendered [36mCommon/SPARKvueUI/build/www/connect.html[0m
  [90mrendered [36mCommon/SPARKvueUI/build/www/filepicker_chromeapp.html[0m
  [90mrendered [36mCommon/SPARKvueUI/build/www/home.html[0m
  [90mrendered [36mCommon/SPARKvueUI/build/www/index.html[0m
  [90mrendered [36mCommon/SPARKvueUI/build/www/login.html[0m
  [90mrendered [36mCommon/SPARKvueUI/build/www/server_test.html[0m
  [90mrendered [36mCommon/SPARKvueUI/build/www/workbook.html[0m

  [90mcompiled[0m Common/SPARKvueUI/build/www/stylesheets/style.css
  [90mcompiled[0m Common/SPARKvueUI/build/www/stylesheets_rtl/style_rtl.css

> Task :individualMinifyCss SKIPPED
> Task :individualMinifyJs SKIPPED
> Task :buildiOS

BUILD SUCCESSFUL in 18s
5 actionable tasks: 5 executed
